%YAML 1.1
%TAG !u! tag:unity3d.com,2011:
--- !u!78 &1
TagManager:
  serializedVersion: 2
  tags:
  - link
  - frog
  - weight
  - coin
  - floor
  - gun
  - gun1
  layers:
  - Default
  - TransparentFX
  - Ignore Raycast
  - 
  - Water
  - UI
  - 
  - 
  - 
  - 
  - 
  - 
  - 
  - 
  - 
  - 
  - 
  - 
  - 
  - 
  - 
  - 
  - 
  - 
  - 
  - 
  - 
  - 
  - 
  - 
  - 
  - 
  m_SortingLayers:
  - name: Default
    uniqueID: 0
    locked: 0
  - name: rope
    uniqueID: 173415219
    locked: 0
  - name: link
    uniqueID: 3473244873
    locked: 0
  - name: gun1
    uniqueID: 1516758659
    locked: 0
  - name: gun2
    uniqueID: 1261932823
    locked: 0
